…
In this case, we're removing any rows where column `cat` is `b`, removing column `col_3`, and then creating a new column that adds columns `col_1` and `col_2`. Running the same Excel files through the updated custom function gives us a different data frame:

```
df_xl <- list.files(dir_path, re_file) %>% 
  map_df(~ read_sheets(dir_path, .))
  
> df_xl
# A tibble: 48 x 7
   file_name              sheet_name cat   col_1 col_2 col_1_plus_col_2 col_4
   <chr>                  <chr>      <chr> <dbl> <dbl>            <dbl> <dbl>
 1 sample_2019-01-09.xlsx Sheet1     c         9     2               11    NA
 2 sample_2019-01-09.xlsx Sheet1     a         1     5                6    NA
 3 sample_2019-01-09.xlsx Sheet1     c         8     8               16    NA
 4 sample_2019-01-09.xlsx Sheet1     a         9     9               18    NA
 5 sample_2019-01-09.xlsx Sheet1     c         4     5                9    NA
 6 sample_2019-01-09.xlsx Sheet1     a        NA     8               NA    NA
 7 sample_2019-01-09.xlsx Sheet2     a         5     4                9    NA
 8 sample_2019-01-09.xlsx Sheet2     c         9     4               13    NA
 9 sample_2019-01-09.xlsx Sheet2     a         1     1                2    NA
10 sample_2019-01-09.xlsx Sheet2     c         8     5               13    NA
# ... with 38 more rows
```
…
